{"pager":{"page":1,"pageCount":2,"total":100,"pageSize":50},"listGrid":{"metaData":{},"headerWidth":7,"width":7,"title":"Visualization Navigator App Search","height":50,"headers":[{"hidden":false,"meta":false,"name":"uid","column":"uid","type":"java.lang.String"},{"hidden":false,"meta":false,"name":"name","column":"name","type":"java.lang.String"},{"hidden":false,"meta":false,"name":"view_count","column":"view_count","type":"java.lang.String"},{"hidden":false,"meta":false,"name":"date","column":"date","type":"java.lang.String"},{"hidden":false,"meta":false,"name":"type","column":"type","type":"java.lang.String"},{"hidden":false,"meta":false,"name":"user","column":"user","type":"java.lang.String"},{"hidden":false,"meta":false,"name":"sql","column":"sql","type":"java.lang.String"}],"rows":[["S6uuOvzM8R9","2020 All MER Results_ BYSubCity",104,"2021-01-20","pivot","fasilet","enhanced"],["PlSzr0uXLZ2","2020_Validation_Naishi_TX_ML_2",108,"2022-03-09","pivot","nyaga_d","enhanced"],["WKNRrUNQ98l","a",105,"2022-05-04","dashboard","VallejoEP","enhanced"],["VXBGIor3wAE","Aline",109,"2022-05-10","dashboard","aline_nkulu","enhanced"],["H4S453d0Slb","AMPATHPlus FY17 Q4 HTS_TST Completeness Review Pivot",103,"2020-11-05","pivot","dantum","enhanced"],["mT53uEAKDPI","AZ_FY21Q3 HTS_SELF (KeyPop)",106,"2021-07-20","pivot","edna.omooria","enhanced"],["mG2VziahO7E","AZ_FY21Q3 TX_RTT",109,"2021-09-03","pivot","edna.omooria","enhanced"],["LVrKuyYh1Fs","BG FY19",104,"2022-05-09","dashboard","henokt","enhanced"],["LrExUNAobbE","bogor ar",105,"2021-11-05","pivot","drahmadini","enhanced"],["EVbWwHoasCv","Bomu - PEPFAR FY20Q4 Results TX_CURR N AUTO-SUM Age/Sex/HIVStatus Completeness Review Pivot",105,"2022-02-16","pivot","Bomu","enhanced"],["FupEajjWsLu","Chiredzi PVLS_D&N",103,"2021-07-28","pivot","lmusisinyani","enhanced"],["MfbWPDXgZuY","Cleo PI HTS AP all sites Oct Dec 18 ",103,"2021-06-15","pivot","CMkanyika","enhanced"],["wfxeh0SVtXJ","COP 16 APR",107,"2022-05-09","dashboard","deklerkm_INT","enhanced"],["BFoeSHTgfwf","COP16 Target Approval Memo Table",106,"2021-07-20","pivot","kkrebs30","enhanced"],["IoAV1x0ZZqF","COP17_IMxPSNU_TAT_KP_PREV_MSMTG",109,"2019-08-23","pivot","kkrebs30","enhanced"],["tq6XT077VV6","COP17_Target_Completeness_Check_KP_PREV_Details",105,"2017-05-22","pivot","kkrebs30","enhanced"],["XFG5wr061fu","Dados GBV 2018",105,"2021-07-30","pivot","sndimande","enhanced"],["fe7Jy83kcTm","DATIM_TX RTT UBA REGIONS",101,"2022-04-26","pivot","cbuberwa","enhanced"],["Ru5ohGnQjPw","DAW/RAS TB_STAT SAPR",104,"2022-03-20","pivot","boctavian","enhanced"],["YJO8QeGP7RP","Dedup check for community",102,"2022-03-18","pivot","wvanrensburg1","enhanced"],["vKsbvisDpl9","ECHO MOZ | PMTCT_EID",103,"2022-05-04","pivot","Baloif","enhanced"],["q6lQJkoiXXs","EGPAF_factsheet_TX_ML",105,"2022-03-02","pivot","ndengo","enhanced"],["niGQd35Ot6r","ENUGU-EZIKE PMTCT ACHIEVEMENT",101,"2022-02-07","pivot","tegaekoh","enhanced"],["ePWKVHwQBVI","ETHICS_ENTRY_FY21Q2",106,"2021-07-17","pivot","CHIMBI-ETHICS2","enhanced"],["loyxzbsoJz9","EUNY INDEX KP AND HHTS RESULTS",102,"2022-04-29","pivot","emlacha","enhanced"],["WBF7kDleBRc","FACE_HIV FY19_HTS_TST_POS",102,"2020-11-30","pivot","Marsha","enhanced"],["n33OBslIy3w","FY18_OVC_SERV",101,"2021-05-17","pivot","kassas","enhanced"],["J8I5Bl2j70R","FY19_Ukraine_TX_TB_by_oblast",103,"2021-11-10","pivot","DobrovolskaLY","enhanced"],["lhqJvuRcMt7","FY20 HTS Results by Modality",107,"2021-03-09","pivot","aabubakar","enhanced"],["SxXkLQHEeJo","FY20 Q2 UMB Data_Review ",103,"2021-09-08","pivot","sdabban","enhanced"],["q6roz8mOOeg","FY21 Q3 CDC Ethiopia reporting status working-CDC-IP",109,"2021-10-29","pivot","alemayehus","enhanced"],["DBi1dQJaJy1","FY21 Results Analytic Visualizations: BF Women Viral Suppression Single Value",108,"2022-05-05","chart","KKelly","enhanced"],["tLNoNefYz7I","FY21 Results Analytic Visualizations: Pregnant Women Viral Suppression Single Value",108,"2022-05-05","chart","KKelly","enhanced"],["Uyqe4oQfgGD","FY22 Results Analytic Visualizations: Percent OVC Exited Before Graduation (%) Single Value",106,"2022-05-10","chart","bao-admin","enhanced"],["sMVDofMBMz4","FY22 Results Analytic Visualizations: TB_PEV FY22 Results",103,"2022-05-10","chart","cturkewitz_dev","enhanced"],["YJ9c1VmXVD8","HTC_TST_POS_FY17-Q2-Swaziland",105,"2019-03-13","pivot","HosseiniPR","enhanced"],["EXBjheDvXR3","HTS by Entry Point Q2 CBCHS",104,"2022-05-01","pivot","Annold_M&E","enhanced"],["eJBD7bMT71W","HTS CHAK PIVOT",102,"2022-05-09","pivot","mkaburu","enhanced"],["P5zUVH1kXr1","HTS_INDEX_CASCADE_APR2019",108,"2020-11-09","pivot","fasilet","enhanced"],["wAC8I6mdLC2","HTS_INDEX_Haiti",106,"2022-01-29","pivot","PEPCO","enhanced"],["FZ67Kc4zDqg","HTS_INDEX_Numerator Disagg-Modif KTC",108,"2022-04-21","pivot","ktchristellle","enhanced"],["mLPPzR9ALZm","HTS_POS",107,"2021-07-23","pivot","Miroya","enhanced"],["XrYIXq67yJT","HTS_TST Test Results UBA",102,"2022-05-08","pivot","cbuberwa","enhanced"],["TvEDOA1SUer","ICAP_PREP_NEW &CURR_FY19Q2",101,"2022-04-19","pivot","empinga","enhanced"],["otIqQihLzib","IHAP-KIN FY22 Target HTS_TST by Modality",103,"2022-05-09","pivot","dtshishi","enhanced"],["kxdtCDqhbtt","IHAP-KIN FY22 Target HTS_TST by Modality INDEX",102,"2022-05-09","pivot","dtshishi","enhanced"],["WGpwj1Dbdiw","Jamaica_TX_ML by Facility",103,"2020-12-16","pivot","MChase_Interagency","enhanced"],["qF2BryTDbwH","Jamaica -  TX_RTT All Agencies",101,"2021-12-17","pivot","MartinS","enhanced"],["JTEYhajqKlB","KeyPop indicators",108,"2022-03-23","pivot","amanzipall","enhanced"],["pEdaKAsfpRQ","LH_ART_current_Quarter",106,"2020-09-15","pivot","hantwe","enhanced"]]}}