{"pager":{"page":1,"pageCount":2,"total":100,"pageSize":50},"listGrid":{"metaData":{},"headerWidth":7,"width":7,"title":"Visualization Navigator App Search","height":50,"headers":[{"hidden":false,"meta":false,"name":"uid","column":"uid","type":"java.lang.String"},{"hidden":false,"meta":false,"name":"name","column":"name","type":"java.lang.String"},{"hidden":false,"meta":false,"name":"view_count","column":"view_count","type":"java.lang.String"},{"hidden":false,"meta":false,"name":"date","column":"date","type":"java.lang.String"},{"hidden":false,"meta":false,"name":"type","column":"type","type":"java.lang.String"},{"hidden":false,"meta":false,"name":"user","column":"user","type":"java.lang.String"},{"hidden":false,"meta":false,"name":"sql","column":"sql","type":"java.lang.String"}],"rows":[["n0CaxnRk0Pn","-",22,"2022-04-15","pivot",25934327,"default"],["XFjvfUkYdp1","0001_KBC_TX_CURR_ARTDISP_3 TO 5 months",4,"2022-03-29","pivot",3942337,"default"],["VW50bqz8fyE","0001_KBC_TX_CURR_ARTDISP_LESSTHAN3",2,"2022-01-26","pivot",3942337,"default"],["NSG8jerq1TC","0.1 ZHCT Q2 Analytics: TX_PVLS Summaries",313,"2022-03-08","pivot",153285632,"default"],["csSGY0XlRBs","08052022 PEPFAR FY22Q2 Results TX_PVLS N AUTO-SUM Age/Sex/Indication/HIV Completeness Review Pivot",1,"2022-05-09","pivot",128668006,"default"],["bTmCWi6u8It","09052022 PEPFAR FY22Q2 Results PMTCT_ART N AUTO-SUM Age/NewExistingArt/Sex/HIV Completeness Review Pivot",1,"2022-05-09","pivot",128668006,"default"],["c40WZpfNhT1","09052022 PEPFAR FY22Q2 Results PMTCT_EID N AUTO-SUM Age Completeness Review Pivot",1,"2022-05-09","pivot",128668006,"default"],["a7pFHmghrPF","09052022 PEPFAR FY22Q2 Results PMTCT_HEI_POS N Age/HIVStatus/ART Completeness Review Pivot",1,"2022-05-09","pivot",128668006,"default"],["qZOBM8WiJnq","09052022PEPFAR FY22Q2 Results PMTCT_HEI_POS N AUTO-SUM Age/HIVStatus Completeness Review Pivot",1,"2022-05-09","pivot",128668006,"default"],["mlbuxR0iSFS","09052022PEPFAR FY22Q2 Results PrEP_CT N Age/Sex Completeness Review Pivot",1,"2022-05-09","pivot",128668006,"default"],["wjL995cbMX6","09052022PEPFAR FY22Q2 Results TB_PREV (Numerator) N Age/Sex/NewExArt/HIVStatus Completeness Review Pivot",1,"2022-05-09","pivot",128668006,"default"],["vWrf5YdzmEo","09052022PEPFAR FY22Q2 Results TB_STAT D AUTO-SUM Age Agg/Sex Completeness Review Pivot",1,"2022-05-09","pivot",128668006,"default"],["IJQytSiC9QA","09052022 PEPFAR FY22Q2 Results TB_STAT N AUTO-SUM Age Agg/Sex/KnownNewPosNeg Completeness Review Pivot",1,"2022-05-09","pivot",128668006,"default"],["VEZHtruLVOJ","0-FY19",62,"2022-05-09","dashboard",130313454,"default"],["YRGMN0qUsyY","0. FY19_EDARP_MER_Results",125,"2022-05-06","dashboard",2685165,"default"],["TMsdwGWFW9Q","10052022 PEPFAR FY22Q2 Results HTS_SELF N AUTO-SUM Age/Sex/HIVSelfTest Directly Assisted/Unassisted Completeness Review Pivot",1,"2022-05-10","pivot",128668006,"default"],["amP0KG0NOY1","10052022PEPFAR FY22Q2 Results HTS_SELF N AUTO-SUM Age/Sex/HIVSelfTest Directly Assisted/Unassisted Completeness Review Pivot",1,"2022-05-10","pivot",128668006,"default"],["i3ooxj3NO6D","10052022 PEPFAR FY22Q2 Results HTS_TST (Community) - N Other Service Modality OtrMod/Age/Sex/Result Completeness Review Pivot",1,"2022-05-10","pivot",128668006,"default"],["BwPmeHD3UE2","10052022PEPFAR FY22Q2 Results HTS_TST N All Modalities Age/Sex/Result Completeness Review Pivot",2,"2022-05-10","pivot",128668006,"default"],["pbIaEbfL1Vq","10052022PEPFAR FY22Q2 Results HTS_TST N All Modalities Age/Sex/Result Completeness Review Pivot",1,"2022-05-10","pivot",128668006,"default"],["LQ6X3lh4YmX","10052022 PEPFAR FY22Q2 Results SC_ARVDISP N DispensedARVBottles Completeness Review Pivot",1,"2022-05-10","pivot",128668006,"default"],["VhsyU1PSgas","10052022 PEPFAR FY22Q2 Results TB_PREV (Denominator) D Age/Sex/NewExArt/HIVStatus Completeness Review Pivot",1,"2022-05-10","pivot",128668006,"default"],["e8px7mnXBNB","10052022PEPFAR FY22Q2 Results TX_NEW N AUTO-SUM Age/Sex/HIVStatus Completeness Review Pivot",1,"2022-05-10","pivot",128668006,"default"],["QSQzsPh5fIw","10052022PEPFAR FY22Q2 Results TX_NEW N AUTO-SUM Age/Sex/HIVStatus Completeness Review Pivot",1,"2022-05-10","pivot",128668006,"default"],["VsIhjbfSdTD","10-19 hts vs tx_new",35,"2022-04-20","pivot",93331225,"default"],["uI6rq30s9Uj","10. Entry Verify: PrEP_CURR by 3mo Test Results for EpiC TZ by GT",213,"2022-04-13","pivot",160071354,"default"],["ho0b0Xg4wQj","10.PMTCT_STAT",91,"2022-04-15","pivot",155342706,"default"],["SF3UUQMqYW0","10.PMTCT_STAT_target",14,"2021-09-21","pivot",155342706,"default"],["zYLxfxyi7qP","10.PrEP New by Ward/Facility Cleaning",32,"2022-05-08","pivot",161662611,"default"],["ZgghNlJCLWc","10. Targets: Index HTS_TST Targets by Sex for FY22 EpiC TZ ~ GT",30,"2021-06-16","pivot",160071354,"default"],["Z0dkXYisqQn","1.11.17 DATIM Training",3,"2017-01-11","dashboard",37849329,"default"],["RkVHxfu8LwR","11. Entry Verify: PrEP_CURR by KeyPop Type for EpiC TZ by GT",195,"2022-04-13","pivot",160071354,"default"],["pDWnvAu2VB8","11.ETHICS_PMTCT_EID",4,"2021-07-17","pivot",155342706,"default"],["c4kspTjo5Wi","11.PMTCT_EID",75,"2022-04-15","pivot",155342706,"default"],["ZqtYgGgddJ4","11.PMTCT_EID_TARGET",18,"2021-05-27","pivot",155342706,"default"],["qRHyrSxLL5s","11.PMTCT_HEI_POS",3,"2021-05-11","pivot",155342706,"default"],["N8rtytWc1xB","11.PrEP CT by Ward/Facility Cleaning",26,"2022-04-28","pivot",161662611,"default"],["X4mh6aKYO3f","11. Targets: HTS_SELF Targets by Sex for FY22 EpiC TZ ~ GT",20,"2021-06-16","pivot",160071354,"default"],["NlWTAQUn6yU","123 ABC DEF Tanzania",5,"2021-09-07","chart",2871935,"default"],["ludbZL7ppxM","12. Entry Verify: KP_PREV by Population Type for EpiC TZ by GT",263,"2022-05-07","pivot",160071354,"default"],["fES0XkexkkR","12. EpiC_KP_PREV (Semi-Annual Summary)",28,"2022-04-27","pivot",161662611,"default"],["luEjdVFnlYn","12.PMTCT_FO",39,"2022-04-20","pivot",155342706,"default"],["tETUHtDrIX4","12. Targets: HTS_SELF Targets by Pop Type for FY22 EpiC TZ ~ GT",11,"2021-06-15","pivot",160071354,"default"],["Q4yC4U0ZBtQ","13. Entry Verify: KP_PREV by Testing Services for EpiC TZ by GT",208,"2022-04-25","pivot",160071354,"default"],["B4FLo61jabj","13. EpiC_PP_PREV (Semi-Annual Summary)",14,"2022-04-27","pivot",161662611,"default"],["R3IBkjMWWKW","13.PMTCT_HEI_POS",6,"2021-04-27","pivot",155342706,"default"],["UvnVMBGjriC","13. Targets: HTS_RECENT Targets by Index Mod for FY22 EpiC TZ ~ GT",21,"2021-06-14","pivot",160071354,"default"],["ceSUX2KCZB8","14.CXCA_TX",7,"2020-10-26","pivot",155342706,"default"],["IxKzobteA0J","14. Entry Verify: PP_PREV by Age/Sex for EpiC TZ by GT",166,"2022-04-22","pivot",160071354,"default"],["TzPObigg8uB","14.EpiC_HIVST Distr_by_Mode by Ward Cleaning",14,"2022-04-20","pivot",161662611,"default"]]}}