{"pager":{"page":1,"pageCount":2,"total":100,"pageSize":50},"listGrid":{"metaData":{},"headerWidth":7,"width":7,"title":"Visualization Navigator App Search","height":50,"headers":[{"hidden":false,"meta":false,"name":"uid","column":"uid","type":"java.lang.String"},{"hidden":false,"meta":false,"name":"name","column":"name","type":"java.lang.String"},{"hidden":false,"meta":false,"name":"view_count","column":"view_count","type":"java.lang.String"},{"hidden":false,"meta":false,"name":"date","column":"date","type":"java.lang.String"},{"hidden":false,"meta":false,"name":"type","column":"type","type":"java.lang.String"},{"hidden":false,"meta":false,"name":"user","column":"user","type":"java.lang.String"},{"hidden":false,"meta":false,"name":"sql","column":"sql","type":"java.lang.String"}],"rows":[["wjL995cbMX6","09052022PEPFAR FY22Q2 Results TB_PREV (Numerator) N Age/Sex/NewExArt/HIVStatus Completeness Review Pivot",1,"2022-05-09","pivot","Kmakhala1","enhanced"],["YRGMN0qUsyY","0. FY19_EDARP_MER_Results",125,"2022-05-06","dashboard","ChristopherMwangi","enhanced"],["kC8ixiIsnFa","18237: MER_FPINT_SITE",456,"2022-05-10","pivot","mpingae-d","enhanced"],["PCOb3yR1eDP","18237 TB PREV (Numerator and Denominator)",89,"2022-04-21","pivot","cbuberwa","enhanced"],["dUHxmHc5Zmp","18237 TX_TB Numerator",27,"2022-03-09","pivot","cbuberwa","enhanced"],["H52eJo2dYHb","2018 MER Results for FY18 and 19 data generation",1,"2021-01-20","pivot","AdugnaIA","enhanced"],["doSavEnt4Mh","2020 ALL MER RESULTS",138,"2022-04-21","pivot","fasilet","enhanced"],["spkfWvmIFuC","2020 All MER Results_ BYFacility",68,"2021-10-24","pivot","fasilet","enhanced"],["w7tkns7M58e","2020 All MER Results_ BYHealth Facilities",24,"2020-10-20","pivot","fasilet","enhanced"],["S6uuOvzM8R9","2020 All MER Results_ BYSubCity",104,"2021-01-20","pivot","fasilet","enhanced"],["iAWm2vWktaA","2020 ALL MER RESULTS_BY SUB CITY",44,"2021-07-13","pivot","fasilet","enhanced"],["Zk6Bb0tAsNb","2.6 MER Indicators SK",2,"2022-01-29","pivot","kundasalaza","enhanced"],["rq1Hr2eBjn2","3Q15 MER Report-KZ ",1,"2017-08-30","dashboard","AllisonLynchInteragencyEnhanced","enhanced"],["zC1KiQ7IcVU","AACAHB_FY21 All MER Indicators  by Quarter RZ",189,"2022-05-09","pivot","fasilet","enhanced"],["QVl6A11VsXw","AACAHB_FY21 All MER Indicators  by Quarter RZ2(U can make any change)",167,"2022-02-15","pivot","fasilet","enhanced"],["tLH4hUeDKTX","AACAHB_FY21 All MER Indicators PDS",46,"2021-12-14","pivot","fasilet","enhanced"],["oxx1D7qAUT0","ABK_Datim_Vs_MER_Com",5,"2021-11-16","pivot","Anoman","enhanced"],["zWomkWFNcRB","ABK_MER Targets COP21",11,"2021-06-24","pivot","Anoman","enhanced"],["wzr0LcagjjH","Adket PEPFAR FY21QIII_MER Completeness Review Pivot",5,"2021-07-26","pivot","HaileME","enhanced"],["gNYRe8dZAqw","Adket PEPFAR FY21QIII_MER Completeness Review Pivot",90,"2022-04-26","pivot","HaileME","enhanced"],["cE2ODyuAewC","Adket PEPFAR FY22Q_I_MER Completeness Review Pivot",84,"2022-05-09","pivot","HaileME","enhanced"],["CV3eiMZ9Q4R","Admire_FY20_Q4_TB_PREV (Numerator)_Trend",1,"2020-11-06","pivot","AChirowodza","enhanced"],["PmB7AuSHUJc","AL-CAR-4Q16-MER+IM",4,"2017-08-02","dashboard","AllisonLynchInteragencyEnhanced","enhanced"],["lvE9VWN9NcM","All Data element MER (Ntira )",20,"2022-04-21","pivot","Tunezerwe","enhanced"],["B6ffKQ22Rqj","All Data element MER (Ntira)",299,"2022-04-21","pivot","ntirampeba","enhanced"],["eItO67ORE7n","All indicators MER (Ntira)",156,"2022-04-21","pivot","ntirampeba","enhanced"],["a6jGWWSbe2l","All indicators MER (Ntira) ",6,"2022-04-21","pivot","Tunezerwe","enhanced"],["jqeKMgEdc0w","ALN_à imprimer_PEPFAR FY21Q2 Results PrEP_CURR N Age/Sex Completeness Review Pivot",29,"2021-11-11","pivot","aline_nkulu","enhanced"],["bn5thrrx2cF","ALN_imprimer_PEPFAR FY21Q2 Results PrEP_NEW N Age/Sex Completeness Review Pivot",3,"2021-11-09","pivot","aline_nkulu","enhanced"],["fuaKrWiqcaD","ALN_PEPFAR FY20Q2 Results TB_PREV (Numerator) N Age/Sex/NewExArt/HIVStatus Completeness Review Pivot",21,"2020-12-04","pivot","aline_nkulu","enhanced"],["Aoa9XWAaXCZ","ALN_PEPFAR FY20Q2 Results TX_TB (Numerator) N Age/Sex/NewExistingArt Completeness Review Pivot",4,"2020-11-13","pivot","aline_nkulu","enhanced"],["mpLlwWjCRwJ","A+ Main FY21Q4 Results TX_TB (Numerator) N Age/Sex/NewExistingArt Completeness Review Pivot",22,"2021-10-22","pivot","sokiya","enhanced"],["kzNDbRqWvKp","A+ Main FY21Q4 Results TX_TB (Numerator) N Age/Sex/NewExistingArt Completeness Review Pivot",1,"2021-10-19","pivot","sokiya","enhanced"],["Jv0DdvOl2ez","A+ Main FY21Q4 Results TX_TB (Numerator) N Age/Sex/NewExistingArt Completeness Review Pivot",6,"2021-10-25","pivot","sokiya","enhanced"],["uu9XvfXhARM","AMPATHPlus  FY20Q2 Results TX_TB (Numerator) N Age/Sex/NewExistingArt Completeness Review Pivot",12,"2021-10-18","pivot","dantum","enhanced"],["ZJCURG0jOFd","AMPATHPLUS  TB_PREV (Numerator/Denominator)  Age/Sex/NewExArt/HIVStatus Completeness Review Pivot",75,"2021-04-22","pivot","dantum","enhanced"],["KnQi6tLDCvd","Annual MER_Results_by_FY_PNG",16,"2021-12-16","pivot","PTemu","enhanced"],["CPNBbOm3Rxg","ANYB FY20Q3 Results HTS_TST (Facility) N PITC Modality: Emergency Ward EW/Age/Sex/Result Completeness Review Pivot",3,"2020-07-23","pivot","Gwada","enhanced"],["fYYxoc4JaTR","ANYB FY20Q4 Results HTS_TST (Facility) N PITC Modality: Emergency Ward EW/Age/Sex/Result Completeness Review Pivot",1,"2020-10-18","pivot","Gwada","enhanced"],["dbFUl7ZJvv9","ANYB FY20Q4 Results TB_PREV (Numerator) N Age/Sex/NewExArt/HIVStatus Completeness Review Pivot",1,"2020-10-20","pivot","Gwada","enhanced"],["MoL3p1heFbR","Approvals: MER Results",534,"2022-05-10","pivot","ben","enhanced"],["guyYXt6xhZS","Approvals: MER Targets",354,"2022-05-10","pivot","ben","enhanced"],["qPnxiffWLMx","Approvals: MER Targets LUGA B",18,"2022-05-07","pivot","lsanga","enhanced"],["fwAFo0We4Co","Approvals: MER Targets LUGA B 15+ and 15-",28,"2022-05-07","pivot","lsanga","enhanced"],["uVTWDfVzXvq","Approvals: MER Targets LUGA B ALL AGES",20,"2022-05-07","pivot","lsanga","enhanced"],["SThONxQLANM","Approvals: MER Targets LUGA B NEW",8,"2022-05-10","pivot","lsanga","enhanced"],["bNuW3zo2iKk","AZ_FY20Q4 HTS_TST (IPD, STI, Emerg, OtherPITC, VCT)",1,"2020-11-12","pivot","LMNguti","enhanced"],["pNzyiklp2AB","AZ_FY21Q3 HTS_TST (IPD, STI, Emerg, OtherPITC, VCT)",193,"2021-09-03","pivot","edna.omooria","enhanced"],["QzWt0XyADv8","Baylor Tingathe CORE 2021 FY21 Results Analytic Visualizations:Tx Curr Total Numerator by Age/Sex ",32,"2022-02-08","pivot","stephenchu","enhanced"],["uefHhlFfr1P","Baylor Tingathe CORE Q2 2021 FY21 Results Analytic Visualizations:Tx Curr Total Numerator by Age/Sex ",26,"2022-01-20","pivot","stephenchu","enhanced"]]}}