{"pager":{"page":1,"pageCount":2,"total":57,"pageSize":50},"listGrid":{"metaData":{},"headerWidth":7,"width":7,"title":"Visualization Navigator App Search","height":50,"headers":[{"hidden":false,"meta":false,"name":"uid","column":"uid","type":"java.lang.String"},{"hidden":false,"meta":false,"name":"name","column":"name","type":"java.lang.String"},{"hidden":false,"meta":false,"name":"view_count","column":"view_count","type":"java.lang.String"},{"hidden":false,"meta":false,"name":"date","column":"date","type":"java.lang.String"},{"hidden":false,"meta":false,"name":"type","column":"type","type":"java.lang.String"},{"hidden":false,"meta":false,"name":"user","column":"user","type":"java.lang.String"},{"hidden":false,"meta":false,"name":"sql","column":"sql","type":"java.lang.String"}],"rows":[["fZOsnFOBovf","18237: CXCA_SCRN",4,"2022-01-01","pivot","mpingae-d","enhanced"],["P5voNIBvzwQ","18237:HTS_INDEX (By Cascade)",4,"2022-01-01","pivot","mpingae-d","enhanced"],["Z7eukG2iftU","18237:HTS_INDEX (By Resuts)",4,"2022-01-01","pivot","mpingae-d","enhanced"],["KdnqUioAhuE","18237: HTS_TST N All Modalities Age/Sex/Result ",6,"2022-01-01","pivot","mpingae-d","enhanced"],["XJRuqhEZHhJ","18237:PEPFAR FY20Q4 Results EMR_SITE N Serv Del Area ",4,"2022-01-01","pivot","mpingae-d","enhanced"],["Z04iq14iwBo","18237:PEPFAR FY20Q4 Results SC_ARVDISP N DispensedARVBottles ",4,"2022-01-01","pivot","mpingae-d","enhanced"],["FfRRWNybALc","18237:PEPFAR FY20Q4 Results SC_CURR N CurrentARVBottles",4,"2022-01-01","pivot","mpingae-d","enhanced"],["Lszwyv0RqnT","18237: PMTCT_EID, PMTCT_HEI_POS (By Age)",4,"2022-01-01","pivot","mpingae-d","enhanced"],["ATORyYlN6kI","18237: PMTCT_FO (Percentage of final outcomes among HIV exposed infants registered in a birth cohort)",4,"2022-01-01","pivot","mpingae-d","enhanced"],["mKlwXY7444L","18237: PMTCT_STAT (By HIV Status)",4,"2022-01-01","pivot","mpingae-d","enhanced"],["pYumxAS5nLA","18237: PMTCT_STAT (Overall)",4,"2022-01-01","pivot","mpingae-d","enhanced"],["PeYA6fyUHXT","18237:TX_PVLS By Key Populations",2,"2022-01-01","pivot","mpingae-d","enhanced"],["TdCF8vXzhHT","18237: TX_PVLS(Quartely)",2,"2022-01-01","pivot","mpingae-d","enhanced"],["zE2BDUDerIF","1.TESTING",3,"2022-01-01","dashboard","mpingae-d","enhanced"],["DzbPcXAmw8R","5.Viral Suppression",1,"2022-01-01","dashboard","mpingae-d","enhanced"],["I1IexpRNCfp","7. Health System (SC_AVRDISP, SC_CURR)",2,"2022-01-01","dashboard","mpingae-d","enhanced"],["T0GcHowh5Mq","AACAHB HTS_TST",1,"2022-01-01","dashboard","fasilet","enhanced"],["d1saiOSfQBd","COP19/FY20 1. Clinical Cascade Dashboard",14,"2022-01-01","dashboard","KKelly","enhanced"],["DG71ebj5nDR","COP19/FY20 3. Treatment Dashboard",2,"2022-01-01","dashboard","KKelly","enhanced"],["WUMxLpjpxsC","COP19/FY20 4. PMTCT Dashboard",1,"2022-01-01","dashboard","KKelly","enhanced"],["MKN9JiZXg6n","COP19/FY20 7. TB Cascade Dashboard",1,"2022-01-01","dashboard","cturkewitz_dev","enhanced"],["SRyMbcVjLsG","COP20/FY21 6. Cervical Cancer Dashboard",1,"2022-01-01","dashboard","KKelly","enhanced"],["D7gwUGwivcV","DATIM_TB STAT DEN UBA REGIONS",8,"2022-01-01","pivot","cbuberwa","enhanced"],["MOam9ZlfTvC","DATIM_TB STAT NUM UBA REGIONS",8,"2022-01-01","pivot","cbuberwa","enhanced"],["UY3jlRLY8kb","Fab_Check_20. TX_PVLS (D, DSD, Age/Sex/Ind/HIV) ≥ TX_PVLS (N, DSD, Age/Sex/Ind/HIV)",4,"2022-01-01","pivot","Fabrice","enhanced"],["s6jRyiw4O1b","Fab_Check_6. TB_STAT (D, DSD, Age/Sex) ≥ TB_STAT (N, DSD, Age/Sex/KnownNewPosNeg).",2,"2022-01-01","pivot","Fabrice","enhanced"],["g3O28ZSLa0e","Fab_Check_7. TB_PREV (D, DSD, Age/Sex/NewExArt/HIVSta) ≥TB_PREV (N, DSD, Age/Sex/NewExArt/HIVStatus)",2,"2022-01-01","pivot","Fabrice","enhanced"],["ewtYq3iP9TS","Fab_Check_9. PMTCT_HEI_POS (N, DSD, Age/HIVStatus) ≥ PMTCT_HEI_POS (N, DSD, Age/HIVStatus/ART)",4,"2022-01-01","pivot","Fabrice","enhanced"],["SyBn24oQAak","Fab_Check_General 1-DSD vs TA & Others",4,"2022-01-01","pivot","Fabrice","enhanced"],["wxB9cNqjaLt","FY20 Results Analytic Visualizations: ART Patients Screen Negative for TB and TPT Completion",2,"2022-01-01","chart","cturkewitz_dev","enhanced"],["Blmx70hByXR","FY20 Results Analytic Visualizations: ART Patients, Screen Positive for TB and TB Treatment",3,"2022-01-01","chart","KKelly","enhanced"],["XgsHgMXeqJZ","FY20 Results Analytic Visualizations: HIV Clinical Cascade",22,"2022-01-01","chart","KKelly","enhanced"],["VgDkdV0Qbrn","FY20 Results Analytic Visualizations: HIV Testing Yield Among Males and Females Over Time",6,"2022-01-01","chart","KKelly","enhanced"],["WPsYG7zSS2Q","FY20 Results Analytic Visualizations: HIV Tests Among Males and Females Over Time",6,"2022-01-01","chart","KKelly","enhanced"],["L57SA0hFNT9","FY20 Results Analytic Visualizations: HTS Age/Sex by Number Tested",2,"2022-01-01","chart","KKelly","enhanced"],["NCdZlD8Ecbv","FY20 Results Analytic Visualizations: HTS_TST Male Yield Single Value",2,"2022-01-01","chart","KKelly","enhanced"],["qifjnLUOqUl","FY20 Results Analytic Visualizations: HTS_TST Yield Total Single Value",22,"2022-01-01","chart","KKelly","enhanced"],["IovKv1rKlJA","FY20 Results Analytic Visualizations: Linkage Total Single Value",10,"2022-01-01","chart","KKelly","enhanced"],["fbHwk4uGPtM","FY20 Results Analytic Visualizations: Maternal to Infant Cascade",2,"2022-01-01","chart","KKelly","enhanced"],["fTFWj0YLtdn","FY20 Results Analytic Visualizations: Percent TX_CURR Females (%) Single Value",4,"2022-01-01","chart","KKelly","enhanced"],["WtHQpqrKP84","FY20 Results Analytic Visualizations: TB_ART Coverage (%) Single Value",2,"2022-01-01","chart","cturkewitz_dev","enhanced"],["lJM66r5frtz","FY20 Results Analytic Visualizations: TB_STAT and ART Cascade",2,"2022-01-01","chart","KKelly","enhanced"],["W3yvdQtI2m0","FY20 Results Analytic Visualizations: TB_STAT Coverage (%) Single Value",2,"2022-01-01","chart","cturkewitz_dev","enhanced"],["aWsgPc81ho9","FY20 Results Analytic Visualizations: TB_STAT Prevalence (%) Single Value",2,"2022-01-01","chart","cturkewitz_dev","enhanced"],["mO4rMAMTk2C","FY20 Results Analytic Visualizations: TX_CURR from FY20 Q2",4,"2022-01-01","chart","cturkewitz_dev","enhanced"],["N7Y1FtwrsPO","FY20 Results Analytic Visualizations: TX_CURR Over Time",4,"2022-01-01","chart","KKelly","enhanced"],["p6bM81Q1V25","FY20 Results Analytic Visualizations: Uptake of Maternal Testing",2,"2022-01-01","chart","KKelly","enhanced"],["xmweSEpukxj","FY20 Results Analytic Visualizations: Viral Load Suppression Total Single Value",8,"2022-01-01","chart","KKelly","enhanced"],["dV3hi2LRucv","FY21 Results Analytic Visualizations: CXCA SCRN POS (%) Single Value",2,"2022-01-01","chart","KKelly","enhanced"],["eN5rEA4SXBv","FY21 Results Analytic Visualizations: HIV/Cervical Cancer Cascade",2,"2022-01-01","chart","KKelly","enhanced"]]}}